…
In the above figure we noticed that it is the loan amount is right skewed and is long tailed and this was fixed it to better understand the amount of loans using log10 tranformation as can be seen in the following figure. i also used IQR range to limit x axis values considering values above IQR\*1.5 from Q3 as outliers.

The binwidth was choosen using Freedman-Diaconis rule. The loan median is 6500 which means 50% of data is below this number and 50% is higer than this. from the histogram below we can see that the most frequent loan amount is 4000 and the second most is 15000 followed by 11000

<img src="Figs/Univariate_Plots2-1.png" style="display: block; margin: auto;" />

What are the categories the loans are listed under (Listing Category of loan):
------------------------------------------------------------------------------

The category of the listing that the borrower selected when posting their listing: 0 - Not Available, 1 - Debt Consolidation, 2 - Home Improvement, 3 - Business, 4 - Personal Loan, 5 - Student Use, 6 - Auto, 7- Other, 8 - Baby&Adoption, 9 - Boat, 10 - Cosmetic Procedure, 11 - Engagement Ring, 12 - Green Loans, 13 - Household Expenses, 14 - Large Purchases, 15 - Medical/Dental, 16 - Motorcycle, 17 - RV, 18 - Taxes, 19 - Vacation, 20 - Wedding Loans.I created a labeled column for the listing.

from the histogram most of the loans are listed under Debt Consolidation category \[number 1\] with 51.25 of all the loans followed by Not Available with 14.9% . and the least listings are for RVs and Green loans with 0.0456% and 0.0518% respectively.

    ## # A tibble: 21 x 3
    ##    ListingCategory..numeric.     n     freq
    ##                        <int> <int>    <dbl>
    ##  1                        17    52 0.000456
    ##  2                        12    59 0.000518
    ##  3                         9    85 0.000746
    ##  4                        10    91 0.000799
    ##  5                         8   199 0.00175 
    ##  6                        11   217 0.00190 
    ##  7                        16   304 0.00267 
    ##  8                         5   756 0.00664 
    ##  9                        19   768 0.00674 
    ## 10                        20   771 0.00677 
    ## # ... with 11 more rows
…
### list year versus the loan status

This show the distrubtion of different loan status across the years.In 2012-2014 most of the loans are current. more loans are completed than defaulted in this dataset. between 2006-2007 the defaulted loans percentage was around 39.00% compared to around 60% completed after 2008 the percentage dropped to 32% and in 2009 it dropped to 15%. it is good to note that these higher defaulted percentage were pre the economic crises in 2009.

<img src="Figs/Bivariate_Plots13-1.png" style="display: block; margin: auto;" />

    ## # A tibble: 28 x 6
    ## # Groups:   ListYear [10]
    ##    ListYear LoanStatus.modi~ avg_loan_amount avg_borrower_ra~     n
    ##    <fct>    <fct>                      <dbl>            <dbl> <int>
    ##  1 2005     Completed                  3856.           0.0935    23
    ##  2 2006     Completed                  4889.           0.169   3755
    ##  3 2006     Defaulted                  4778.           0.225   2458
    ##  4 2007     Completed                  6629.           0.157   7041
    ##  5 2007     Defaulted                  7749.           0.207   4516
    ##  6 2008     Completed                  5812.           0.171   7571
    ##  7 2008     Defaulted                  6277.           0.219   3692
    ##  8 2009     Completed                  4437.           0.186   1870
    ##  9 2009     Defaulted                  4151.           0.237    336
    ## 10 2010     Completed                  4893.           0.205   4566
    ## # ... with 18 more rows, and 1 more variable: percentage <dbl>
…
